…
    ## # A tibble: 1 × 1
    ##        n
    ##    <int>
    ## 1 146611

``` r
tree_number_genus <- count(vancouver_trees, genus_name) # gives the number of trees for each species of tree in the data set vancouver_trees
print(tree_number_genus)
```

    ## # A tibble: 97 × 2
    ##    genus_name      n
    ##    <chr>       <int>
    ##  1 ABIES         190
    ##  2 ACER        36062
    ##  3 AESCULUS     2570
    ##  4 AILANTHUS       4
    ##  5 ALBIZIA         1
    ##  6 ALNUS          74
    ##  7 AMELANCHIER   226
    ##  8 ARALIA          4
    ##  9 ARAUCARIA      10
    ## 10 ARBUTUS        10
    ## # ℹ 87 more rows
…
    ## # A tibble: 1 × 1
    ##       n
    ##   <int>
    ## 1 40833

``` r
games_count <- count(steam_games, genre) # gives the number of games for each genre of game from the data set steam_games
print(games_count)
```

    ## # A tibble: 1,769 × 2
    ##    genre                                                                       n
    ##    <chr>                                                                   <int>
    ##  1 Accounting                                                                  2
    ##  2 Accounting,Animation & Modeling,Audio Production,Design & Illustration…     1
    ##  3 Accounting,Animation & Modeling,Audio Production,Design & Illustration…     2
    ##  4 Accounting,Education,Software Training,Utilities,Early Access               1
    ##  5 Action                                                                   2386
    ##  6 Action,Adventure                                                          809
    ##  7 Action,Adventure,Casual                                                    64
    ##  8 Action,Adventure,Casual,Early Access                                        1
    ##  9 Action,Adventure,Casual,Free to Play                                        1
    ## 10 Action,Adventure,Casual,Free to Play,Early Access                           1
    ## # ℹ 1,759 more rows
…
    ## # A tibble: 1 × 1
    ##       n
    ##   <int>
    ## 1  3455

``` r
buildings_heating_year <- count(apt_buildings, heating_type, year_built) # gives insight into the number of apartment buildings that use different heating types and the year they were built in within the data set apt_buildings
print(buildings_heating_year)
```

    ## # A tibble: 296 × 3
    ##    heating_type year_built     n
    ##    <chr>             <dbl> <int>
    ##  1 ELECTRIC           1838     1
    ##  2 ELECTRIC           1885     1
    ##  3 ELECTRIC           1897     1
    ##  4 ELECTRIC           1900     3
    ##  5 ELECTRIC           1901     1
    ##  6 ELECTRIC           1910     3
    ##  7 ELECTRIC           1911     2
    ##  8 ELECTRIC           1912     2
    ##  9 ELECTRIC           1913     1
    ## 10 ELECTRIC           1917     1
    ## # ℹ 286 more rows
…
