…
### Research Question 2

#### Summarizing

    genus_neighbourhood <- vancouver_trees %>%
      group_by(genus_name, neighbourhood_name) %>% # groups data by tree genus and neighbourhood
      summarize(count = n(), # count of genus of tree in a neighbourhood
                proportion = n() / nrow(.)) # proportion of genus of tree in a neighbourhood

    ## `summarise()` has grouped output by 'genus_name'. You can override using the
    ## `.groups` argument.

    print(genus_neighbourhood)

    ## # A tibble: 1,303 × 4
    ## # Groups:   genus_name [97]
    ##    genus_name neighbourhood_name       count proportion
    ##    <chr>      <chr>                    <int>      <dbl>
    ##  1 ABIES      ARBUTUS-RIDGE               18 0.000123  
    ##  2 ABIES      DOWNTOWN                     1 0.00000682
    ##  3 ABIES      DUNBAR-SOUTHLANDS           10 0.0000682 
    ##  4 ABIES      FAIRVIEW                     4 0.0000273 
    ##  5 ABIES      GRANDVIEW-WOODLAND           5 0.0000341 
    ##  6 ABIES      HASTINGS-SUNRISE             8 0.0000546 
    ##  7 ABIES      KENSINGTON-CEDAR COTTAGE    23 0.000157  
    ##  8 ABIES      KERRISDALE                  10 0.0000682 
    ##  9 ABIES      KILLARNEY                    1 0.00000682
    ## 10 ABIES      KITSILANO                   17 0.000116  
    ## # ℹ 1,293 more rows
…
### Research Question 3

#### Summarizing

    tree_ages <- vancouver_trees %>%
      mutate(age_years = as.numeric(difftime(as.Date("2023-10-25"), date_planted, units = "days") / 365.25)) %>% # calculates age of tree in years using the date planted and makes a new column for this
      select(genus_name, species_name, neighbourhood_name, date_planted, age_years) # removes unnecessary columns
    print(tree_ages)

    ## # A tibble: 146,611 × 5
    ##    genus_name species_name neighbourhood_name       date_planted age_years
    ##    <chr>      <chr>        <chr>                    <date>           <dbl>
    ##  1 ULMUS      AMERICANA    MARPOLE                  1999-01-13        24.8
    ##  2 ZELKOVA    SERRATA      MARPOLE                  1996-05-31        27.4
    ##  3 STYRAX     JAPONICA     KENSINGTON-CEDAR COTTAGE 1993-11-22        29.9
    ##  4 FRAXINUS   AMERICANA    KENSINGTON-CEDAR COTTAGE 1996-04-29        27.5
    ##  5 ACER       CAMPESTRE    KENSINGTON-CEDAR COTTAGE 1993-12-17        29.9
    ##  6 PYRUS      CALLERYANA   MARPOLE                  NA                NA  
    ##  7 ACER       PLATANOIDES  KENSINGTON-CEDAR COTTAGE 1993-12-16        29.9
    ##  8 ACER       PLATANOIDES  KENSINGTON-CEDAR COTTAGE 1993-12-16        29.9
    ##  9 ACER       PLATANOIDES  KENSINGTON-CEDAR COTTAGE 1993-12-16        29.9
    ## 10 FRAXINUS   AMERICANA    KENSINGTON-CEDAR COTTAGE 1993-12-03        29.9
    ## # ℹ 146,601 more rows

    tree_ages_summary <- tree_ages %>%
      group_by(neighbourhood_name) %>%
      summarize(age_range = max(age_years, na.rm = TRUE) - min(age_years, na.rm = TRUE), # calculates range of tree ages
                mean_age = mean(age_years, na.rm = TRUE),
                median_age = median(age_years, na.rm = TRUE),
                variance_age = var(age_years, na.rm = TRUE))
    print(tree_ages_summary)

    ## # A tibble: 22 × 5
    ##    neighbourhood_name       age_range mean_age median_age variance_age
    ##    <chr>                        <dbl>    <dbl>      <dbl>        <dbl>
    ##  1 ARBUTUS-RIDGE                 29.4     19.8       21.0         56.5
    ##  2 DOWNTOWN                      29.5     18.3       17.6         46.6
    ##  3 DUNBAR-SOUTHLANDS             29.5     18.9       19.7         52.9
    ##  4 FAIRVIEW                      29.3     19.6       19.6         49.6
    ##  5 GRANDVIEW-WOODLAND            29.5     19.4       20.0         54.9
    ##  6 HASTINGS-SUNRISE              29.3     21.1       20.8         65.9
    ##  7 KENSINGTON-CEDAR COTTAGE      29.4     20.6       21.6         49.8
    ##  8 KERRISDALE                    29.5     18.7       18.7         47.7
    ##  9 KILLARNEY                     29.6     19.7       20.6         61.6
    ## 10 KITSILANO                     29.2     18.6       17.8         54.8
    ## # ℹ 12 more rows
…
### Research Question 4

#### Summarizing

    curb_trees <- vancouver_trees %>%
      group_by(curb, height_range_id) %>% # groups data by whether a tree is planted by a curb and its height range
      summarize(count = n(), # count of trees
                proportion = n() / nrow(.)) # proportion of trees

    ## `summarise()` has grouped output by 'curb'. You can override using the
    ## `.groups` argument.

    print(curb_trees)

    ## # A tibble: 22 × 4
    ## # Groups:   curb [2]
    ##    curb  height_range_id count proportion
    ##    <chr>           <dbl> <int>      <dbl>
    ##  1 N                   0    41   0.000280
    ##  2 N                   1  4099   0.0280  
    ##  3 N                   2  2622   0.0179  
    ##  4 N                   3  1866   0.0127  
    ##  5 N                   4  1847   0.0126  
    ##  6 N                   5  1180   0.00805 
    ##  7 N                   6   668   0.00456 
    ##  8 N                   7   372   0.00254 
    ##  9 N                   8    87   0.000593
    ## 10 N                   9    21   0.000143
    ## # ℹ 12 more rows
…
#### Untidying the Data

To untidy my data, I used pivot\_wider to move diameter values into new
columns that correspond to the genus\_name of the tree. This data is
untidy as it results in many NA values, and observations for diameters
are spread out across many columns.

    untidy_trees <- vancouver_trees %>%
      pivot_wider(names_from = genus_name,
                   values_from = diameter) # pivots data wider such that genus_name becomes columns and values from diameter correspond to genus name, making the data untidy

    print(untidy_trees)

    ## # A tibble: 146,611 × 115
    ##    tree_id civic_number std_street    species_name cultivar_name   common_name  
    ##      <dbl>        <dbl> <chr>         <chr>        <chr>           <chr>        
    ##  1  149556          494 W 58TH AV     AMERICANA    BRANDON         BRANDON ELM  
    ##  2  149563          450 W 58TH AV     SERRATA      <NA>            JAPANESE ZEL…
    ##  3  149579         4994 WINDSOR ST    JAPONICA     <NA>            JAPANESE SNO…
    ##  4  149590          858 E 39TH AV     AMERICANA    AUTUMN APPLAUSE AUTUMN APPLA…
    ##  5  149604         5032 WINDSOR ST    CAMPESTRE    <NA>            HEDGE MAPLE  
    ##  6  149616          585 W 61ST AV     CALLERYANA   CHANTICLEER     CHANTICLEER …
    ##  7  149617         4909 SHERBROOKE ST PLATANOIDES  COLUMNARE       COLUMNAR NOR…
    ##  8  149618         4925 SHERBROOKE ST PLATANOIDES  COLUMNARE       COLUMNAR NOR…
    ##  9  149619         4969 SHERBROOKE ST PLATANOIDES  COLUMNARE       COLUMNAR NOR…
    ## 10  149625          720 E 39TH AV     AMERICANA    AUTUMN APPLAUSE AUTUMN APPLA…
    ## # ℹ 146,601 more rows
    ## # ℹ 109 more variables: assigned <chr>, root_barrier <chr>, plant_area <chr>,
    ## #   on_street_block <dbl>, on_street <chr>, neighbourhood_name <chr>,
    ## #   street_side_name <chr>, height_range_id <dbl>, curb <chr>,
    ## #   date_planted <date>, longitude <dbl>, latitude <dbl>, ULMUS <dbl>,
    ## #   ZELKOVA <dbl>, STYRAX <dbl>, FRAXINUS <dbl>, ACER <dbl>, PYRUS <dbl>,
    ## #   TILIA <dbl>, HIBISCUS <dbl>, LIQUIDAMBAR <dbl>, PRUNUS <dbl>, …
…
    tidy_trees <- untidy_trees %>%
      pivot_longer(c(ULMUS:ALBIZIA),
                   names_to = "genus_name",
                   values_to = "diameter",
                   values_drop_na = TRUE) %>% # pivots data longer such that genus_name and diameter become values in separate columns, making the data tidy again
      select(c("tree_id":"std_street", "genus_name", "species_name":"height_range_id", "diameter", "curb":"latitude")) # puts columns in the same order as they were previously

    print(tidy_trees)

    ## # A tibble: 146,611 × 20
    ##    tree_id civic_number std_street    genus_name species_name cultivar_name  
    ##      <dbl>        <dbl> <chr>         <chr>      <chr>        <chr>          
    ##  1  149556          494 W 58TH AV     ULMUS      AMERICANA    BRANDON        
    ##  2  149563          450 W 58TH AV     ZELKOVA    SERRATA      <NA>           
    ##  3  149579         4994 WINDSOR ST    STYRAX     JAPONICA     <NA>           
    ##  4  149590          858 E 39TH AV     FRAXINUS   AMERICANA    AUTUMN APPLAUSE
    ##  5  149604         5032 WINDSOR ST    ACER       CAMPESTRE    <NA>           
    ##  6  149616          585 W 61ST AV     PYRUS      CALLERYANA   CHANTICLEER    
    ##  7  149617         4909 SHERBROOKE ST ACER       PLATANOIDES  COLUMNARE      
    ##  8  149618         4925 SHERBROOKE ST ACER       PLATANOIDES  COLUMNARE      
    ##  9  149619         4969 SHERBROOKE ST ACER       PLATANOIDES  COLUMNARE      
    ## 10  149625          720 E 39TH AV     FRAXINUS   AMERICANA    AUTUMN APPLAUSE
    ## # ℹ 146,601 more rows
    ## # ℹ 14 more variables: common_name <chr>, assigned <chr>, root_barrier <chr>,
    ## #   plant_area <chr>, on_street_block <dbl>, on_street <chr>,
    ## #   neighbourhood_name <chr>, street_side_name <chr>, height_range_id <dbl>,
    ## #   diameter <dbl>, curb <chr>, date_planted <date>, longitude <dbl>,
    ## #   latitude <dbl>
…
<!--------------------------- Start your work below --------------------------->

### Version of Data to Answer the 2 Questions

    tree_diameters_areas <- vancouver_trees %>%
      select(tree_id, genus_name, on_street_block, on_street, neighbourhood_name, height_range_id, diameter, longitude, latitude) %>% # dropping irrelevant columns
      filter(!is.na(longitude), !is.na(latitude)) %>% # removes longitude and latitude values that are NA
      mutate(area = pi * (diameter / 2)^2) %>% # creating a new column that is the area of the trees, calculated from its diameter
      arrange(desc(diameter)) # arranging data by descending diameter

    print(tree_diameters_areas)

    ## # A tibble: 123,840 × 10
    ##    tree_id genus_name     on_street_block on_street        neighbourhood_name 
    ##      <dbl> <chr>                    <dbl> <chr>            <chr>              
    ##  1  199599 STYRAX                    2800 WILLIAM ST       HASTINGS-SUNRISE   
    ##  2  149285 ACER                      3000 CYPRESS ST       KITSILANO          
    ##  3   51001 ACER                       800 W 60TH AV        MARPOLE            
    ##  4   84751 ACER                      8200 HUDSON ST        MARPOLE            
    ##  5   54498 ACER                      6600 ADERA ST         KERRISDALE         
    ##  6   78588 ACER                      1300 W GEORGIA ST     DOWNTOWN           
    ##  7  182674 ULMUS                     1400 E 64TH AV        VICTORIA-FRASERVIEW
    ##  8   23759 PRUNUS                     500 W 22ND AV        SOUTH CAMBIE       
    ##  9  117345 CERCIDIPHYLLUM            2600 BRIGHTWOOD PLACE VICTORIA-FRASERVIEW
    ## 10  141999 CORNUS                    1800 W KING EDWARD AV SHAUGHNESSY        
    ## # ℹ 123,830 more rows
    ## # ℹ 5 more variables: height_range_id <dbl>, diameter <dbl>, longitude <dbl>,
    ## #   latitude <dbl>, area <dbl>
…
-   Be sure to indicate in writing what you chose to produce.
-   Your code should either output a tibble (in which case you should
    indicate the column that contains the thing you’re looking for), or
    the thing you’re looking for itself.
-   Obtain your results using the `broom` package if possible. If your
    model is not compatible with the broom function you’re needing, then
    you can obtain your results by some other means, but first indicate
    which broom function is not compatible.

<!-------------------------- Start your work below ---------------------------->

    fitted_data <- broom::tidy(model) # looks at a summary of the different components of the model
    print(fitted_data)

    ## # A tibble: 97 × 5
    ##    term                             estimate std.error statistic   p.value
    ##    <chr>                               <dbl>     <dbl>     <dbl>     <dbl>
    ##  1 (Intercept)                         12.9      0.590    22.0   1.17e-106
    ##  2 as.factor(genus_name)ACER           -2.34     0.591    -3.96  7.60e-  5
    ##  3 as.factor(genus_name)AESCULUS       10.8      0.611    17.7   1.03e- 69
    ##  4 as.factor(genus_name)AILANTHUS       2.93     4.11      0.713 4.76e-  1
    ##  5 as.factor(genus_name)ALBIZIA        -6.95     8.15     -0.852 3.94e-  1
    ##  6 as.factor(genus_name)ALNUS           4.59     1.11      4.12  3.85e-  5
    ##  7 as.factor(genus_name)AMELANCHIER    -9.74     0.800   -12.2   4.54e- 34
    ##  8 as.factor(genus_name)ARALIA         -6.13     4.11     -1.49  1.35e-  1
    ##  9 as.factor(genus_name)ARAUCARIA      -1.55     2.64     -0.586 5.58e-  1
    ## 10 as.factor(genus_name)ARBUTUS         5.45     2.64      2.07  3.86e-  2
    ## # ℹ 87 more rows
…
Write your model object from Task 3 to an R binary file (an RDS), and
load it again. Be sure to save the binary file in your `output` folder.
Use the functions `saveRDS()` and `readRDS()`.

-   The same robustness and reproducibility criteria as in 4.1 apply
    here.

<!-------------------------- Start your work below ---------------------------->

    saveRDS(fitted_data, file = here("output", "fitted_data.rds")) # writes fitted_data into an R binary file

    fitted_data_read <- readRDS(here("output", "fitted_data.rds")) # loads the R binary file fitted_data.rds
    fitted_data_read

    ## # A tibble: 97 × 5
    ##    term                             estimate std.error statistic   p.value
    ##    <chr>                               <dbl>     <dbl>     <dbl>     <dbl>
    ##  1 (Intercept)                         12.9      0.590    22.0   1.17e-106
    ##  2 as.factor(genus_name)ACER           -2.34     0.591    -3.96  7.60e-  5
    ##  3 as.factor(genus_name)AESCULUS       10.8      0.611    17.7   1.03e- 69
    ##  4 as.factor(genus_name)AILANTHUS       2.93     4.11      0.713 4.76e-  1
    ##  5 as.factor(genus_name)ALBIZIA        -6.95     8.15     -0.852 3.94e-  1
    ##  6 as.factor(genus_name)ALNUS           4.59     1.11      4.12  3.85e-  5
    ##  7 as.factor(genus_name)AMELANCHIER    -9.74     0.800   -12.2   4.54e- 34
    ##  8 as.factor(genus_name)ARALIA         -6.13     4.11     -1.49  1.35e-  1
    ##  9 as.factor(genus_name)ARAUCARIA      -1.55     2.64     -0.586 5.58e-  1
    ## 10 as.factor(genus_name)ARBUTUS         5.45     2.64      2.07  3.86e-  2
    ## # ℹ 87 more rows
…
